build/sim/xsim.log
#-----------------------------------------------------------
# xsim v2024.1 (64-bit)
# SW Build 5076996 on Wed May 22 18:36:09 MDT 2024
# IP Build 5075265 on Wed May 22 21:45:21 MDT 2024
# SharedData Build 5076995 on Wed May 22 18:29:18 MDT 2024
# Start of session at: Thu Jan 15 19:00:53 2026
# Process ID: 3133
# Current directory: /home/sportsman/coding/systemverilog/uTPU/build/sim
# Command line: xsim -mode tcl -source {xsim.dir/work.pe_controller_tb/xsim_script.tcl}
# Log file: /home/sportsman/coding/systemverilog/uTPU/build/sim/xsim.log
# Journal file: /home/sportsman/coding/systemverilog/uTPU/build/sim/xsim.jou
# Running On        :arch
# Platform          :unknown
# Operating System  :unknown
# Processor Detail  :13th Gen Intel(R) Core(TM) i7-13700H
# CPU Frequency     :831.477 MHz
# CPU Physical cores:14
# CPU Logical cores :20
# Host memory       :33300 MB
# Swap memory       :17179 MB
# Total Virtual     :50480 MB
# Available Virtual :49216 MB
#-----------------------------------------------------------
source xsim.dir/work.pe_controller_tb/xsim_script.tcl
# xsim {work.pe_controller_tb} -autoloadwcfg -runall
Time resolution is 1 ps
run -all
MISMATCH t=25000 cc=1 idx=0 DUT=x EXP=0
MISMATCH t=25000 cc=1 idx=1 DUT=x EXP=0
MISMATCH t=25000 cc=1 idx=2 DUT=x EXP=0
MISMATCH t=25000 cc=1 idx=3 DUT=x EXP=0
MISMATCH t=25000 cc=1 idx=4 DUT=x EXP=0
MISMATCH t=25000 cc=1 idx=5 DUT=x EXP=0
MISMATCH t=25000 cc=1 idx=6 DUT=x EXP=0
MISMATCH t=25000 cc=1 idx=7 DUT=x EXP=0
MISMATCH t=25000 cc=1 idx=8 DUT=x EXP=0
MISMATCH t=25000 cc=1 idx=9 DUT=x EXP=0
MISMATCH t=25000 cc=1 idx=10 DUT=x EXP=0
MISMATCH t=25000 cc=1 idx=11 DUT=x EXP=0
MISMATCH t=25000 cc=1 idx=12 DUT=x EXP=0
MISMATCH t=25000 cc=1 idx=13 DUT=x EXP=0
MISMATCH t=25000 cc=1 idx=14 DUT=x EXP=0
MISMATCH t=25000 cc=1 idx=15 DUT=x EXP=0
MISMATCH t=25000 cc=1 idx=16 DUT=x EXP=0
MISMATCH t=25000 cc=1 idx=17 DUT=x EXP=0
MISMATCH t=25000 cc=1 idx=18 DUT=x EXP=0
MISMATCH t=25000 cc=1 idx=19 DUT=x EXP=0
MISMATCH t=25000 cc=1 idx=20 DUT=x EXP=0
MISMATCH t=25000 cc=1 idx=21 DUT=x EXP=0
MISMATCH t=25000 cc=1 idx=22 DUT=x EXP=0
MISMATCH t=25000 cc=1 idx=23 DUT=x EXP=0
MISMATCH t=25000 cc=1 idx=24 DUT=x EXP=0
MISMATCH t=25000 cc=1 idx=25 DUT=x EXP=0
MISMATCH t=25000 cc=1 idx=26 DUT=x EXP=0
MISMATCH t=25000 cc=1 idx=27 DUT=x EXP=0
MISMATCH t=25000 cc=1 idx=28 DUT=x EXP=0
MISMATCH t=25000 cc=1 idx=29 DUT=x EXP=0
MISMATCH t=25000 cc=1 idx=30 DUT=x EXP=0
MISMATCH t=25000 cc=1 idx=31 DUT=x EXP=0
MISMATCH t=25000 cc=1 idx=32 DUT=x EXP=0
MISMATCH t=25000 cc=1 idx=33 DUT=x EXP=0
MISMATCH t=25000 cc=1 idx=34 DUT=x EXP=0
MISMATCH t=25000 cc=1 idx=35 DUT=x EXP=0
MISMATCH t=25000 cc=1 idx=36 DUT=x EXP=0
MISMATCH t=25000 cc=1 idx=37 DUT=x EXP=0
MISMATCH t=25000 cc=1 idx=38 DUT=x EXP=0
MISMATCH t=25000 cc=1 idx=39 DUT=x EXP=0
MISMATCH t=25000 cc=1 idx=40 DUT=x EXP=0
MISMATCH t=25000 cc=1 idx=41 DUT=x EXP=0
MISMATCH t=25000 cc=1 idx=42 DUT=x EXP=0
MISMATCH t=25000 cc=1 idx=43 DUT=x EXP=0
MISMATCH t=25000 cc=1 idx=44 DUT=x EXP=0
MISMATCH t=25000 cc=1 idx=45 DUT=x EXP=0
MISMATCH t=25000 cc=1 idx=46 DUT=x EXP=0
MISMATCH t=25000 cc=1 idx=47 DUT=x EXP=0
MISMATCH t=25000 cc=1 idx=48 DUT=x EXP=0
MISMATCH t=25000 cc=1 idx=49 DUT=x EXP=0
MISMATCH t=25000 cc=1 idx=50 DUT=x EXP=0
MISMATCH t=25000 cc=1 idx=51 DUT=x EXP=0
MISMATCH t=25000 cc=1 idx=52 DUT=x EXP=0
MISMATCH t=25000 cc=1 idx=53 DUT=x EXP=0
MISMATCH t=25000 cc=1 idx=54 DUT=x EXP=0
MISMATCH t=25000 cc=1 idx=55 DUT=x EXP=0
MISMATCH t=25000 cc=1 idx=56 DUT=x EXP=0
MISMATCH t=25000 cc=1 idx=57 DUT=x EXP=0
MISMATCH t=25000 cc=1 idx=58 DUT=x EXP=0
MISMATCH t=25000 cc=1 idx=59 DUT=x EXP=0
MISMATCH t=25000 cc=1 idx=60 DUT=x EXP=0
MISMATCH t=25000 cc=1 idx=61 DUT=x EXP=0
MISMATCH t=25000 cc=1 idx=62 DUT=x EXP=0
MISMATCH t=25000 cc=1 idx=63 DUT=x EXP=0
MISMATCH t=35000 cc=2 idx=0 DUT=x EXP=0
MISMATCH t=35000 cc=2 idx=1 DUT=x EXP=0
MISMATCH t=35000 cc=2 idx=2 DUT=x EXP=0
MISMATCH t=35000 cc=2 idx=3 DUT=x EXP=0
MISMATCH t=35000 cc=2 idx=4 DUT=x EXP=0
MISMATCH t=35000 cc=2 idx=5 DUT=x EXP=0
MISMATCH t=35000 cc=2 idx=6 DUT=x EXP=0
MISMATCH t=35000 cc=2 idx=7 DUT=x EXP=0
MISMATCH t=35000 cc=2 idx=8 DUT=x EXP=0
MISMATCH t=35000 cc=2 idx=9 DUT=x EXP=0
MISMATCH t=35000 cc=2 idx=10 DUT=x EXP=0
MISMATCH t=35000 cc=2 idx=11 DUT=x EXP=0
MISMATCH t=35000 cc=2 idx=12 DUT=x EXP=0
MISMATCH t=35000 cc=2 idx=13 DUT=x EXP=0
MISMATCH t=35000 cc=2 idx=14 DUT=x EXP=0
MISMATCH t=35000 cc=2 idx=15 DUT=x EXP=0
MISMATCH t=35000 cc=2 idx=16 DUT=x EXP=0
MISMATCH t=35000 cc=2 idx=17 DUT=x EXP=0
MISMATCH t=35000 cc=2 idx=18 DUT=x EXP=0
MISMATCH t=35000 cc=2 idx=19 DUT=x EXP=0
MISMATCH t=35000 cc=2 idx=20 DUT=x EXP=0
MISMATCH t=35000 cc=2 idx=21 DUT=x EXP=0
MISMATCH t=35000 cc=2 idx=22 DUT=x EXP=0
MISMATCH t=35000 cc=2 idx=23 DUT=x EXP=0
MISMATCH t=35000 cc=2 idx=24 DUT=x EXP=0
MISMATCH t=35000 cc=2 idx=25 DUT=x EXP=0
MISMATCH t=35000 cc=2 idx=26 DUT=x EXP=0
MISMATCH t=35000 cc=2 idx=27 DUT=x EXP=0
MISMATCH t=35000 cc=2 idx=28 DUT=x EXP=0
MISMATCH t=35000 cc=2 idx=29 DUT=x EXP=0
MISMATCH t=35000 cc=2 idx=30 DUT=x EXP=0
MISMATCH t=35000 cc=2 idx=31 DUT=x EXP=0
MISMATCH t=35000 cc=2 idx=32 DUT=x EXP=0
MISMATCH t=35000 cc=2 idx=33 DUT=x EXP=0
MISMATCH t=35000 cc=2 idx=34 DUT=x EXP=0
MISMATCH t=35000 cc=2 idx=35 DUT=x EXP=0
MISMATCH t=35000 cc=2 idx=36 DUT=x EXP=0
MISMATCH t=35000 cc=2 idx=37 DUT=x EXP=0
MISMATCH t=35000 cc=2 idx=38 DUT=x EXP=0
MISMATCH t=35000 cc=2 idx=39 DUT=x EXP=0
MISMATCH t=35000 cc=2 idx=40 DUT=x EXP=0
MISMATCH t=35000 cc=2 idx=41 DUT=x EXP=0
MISMATCH t=35000 cc=2 idx=42 DUT=x EXP=0
MISMATCH t=35000 cc=2 idx=43 DUT=x EXP=0
MISMATCH t=35000 cc=2 idx=44 DUT=x EXP=0
MISMATCH t=35000 cc=2 idx=45 DUT=x EXP=0
MISMATCH t=35000 cc=2 idx=46 DUT=x EXP=0
MISMATCH t=35000 cc=2 idx=47 DUT=x EXP=0
MISMATCH t=35000 cc=2 idx=48 DUT=x EXP=0
MISMATCH t=35000 cc=2 idx=49 DUT=x EXP=0
MISMATCH t=35000 cc=2 idx=50 DUT=x EXP=0
MISMATCH t=35000 cc=2 idx=51 DUT=x EXP=0
MISMATCH t=35000 cc=2 idx=52 DUT=x EXP=0
MISMATCH t=35000 cc=2 idx=53 DUT=x EXP=0
MISMATCH t=35000 cc=2 idx=54 DUT=x EXP=0
MISMATCH t=35000 cc=2 idx=55 DUT=x EXP=0
MISMATCH t=35000 cc=2 idx=56 DUT=x EXP=0
MISMATCH t=35000 cc=2 idx=57 DUT=x EXP=0
MISMATCH t=35000 cc=2 idx=58 DUT=x EXP=0
MISMATCH t=35000 cc=2 idx=59 DUT=x EXP=0
MISMATCH t=35000 cc=2 idx=60 DUT=x EXP=0
MISMATCH t=35000 cc=2 idx=61 DUT=x EXP=0
MISMATCH t=35000 cc=2 idx=62 DUT=x EXP=0
MISMATCH t=35000 cc=2 idx=63 DUT=x EXP=0
MISMATCH t=45000 cc=3 idx=0 DUT=x EXP=0
MISMATCH t=45000 cc=3 idx=1 DUT=x EXP=0
MISMATCH t=45000 cc=3 idx=2 DUT=x EXP=0
MISMATCH t=45000 cc=3 idx=3 DUT=x EXP=0
MISMATCH t=45000 cc=3 idx=4 DUT=x EXP=0
MISMATCH t=45000 cc=3 idx=5 DUT=x EXP=0
MISMATCH t=45000 cc=3 idx=6 DUT=x EXP=0
MISMATCH t=45000 cc=3 idx=7 DUT=x EXP=0
MISMATCH t=45000 cc=3 idx=8 DUT=x EXP=0
MISMATCH t=45000 cc=3 idx=9 DUT=x EXP=0
MISMATCH t=45000 cc=3 idx=10 DUT=x EXP=0
MISMATCH t=45000 cc=3 idx=11 DUT=x EXP=0
MISMATCH t=45000 cc=3 idx=12 DUT=x EXP=0
MISMATCH t=45000 cc=3 idx=13 DUT=x EXP=0
MISMATCH t=45000 cc=3 idx=14 DUT=x EXP=0
MISMATCH t=45000 cc=3 idx=15 DUT=x EXP=0
MISMATCH t=45000 cc=3 idx=16 DUT=x EXP=0
MISMATCH t=45000 cc=3 idx=17 DUT=x EXP=0
MISMATCH t=45000 cc=3 idx=18 DUT=x EXP=0
MISMATCH t=45000 cc=3 idx=19 DUT=x EXP=0
MISMATCH t=45000 cc=3 idx=20 DUT=x EXP=0
MISMATCH t=45000 cc=3 idx=21 DUT=x EXP=0
MISMATCH t=45000 cc=3 idx=22 DUT=x EXP=0
MISMATCH t=45000 cc=3 idx=23 DUT=x EXP=0
MISMATCH t=45000 cc=3 idx=24 DUT=x EXP=0
MISMATCH t=45000 cc=3 idx=25 DUT=x EXP=0
MISMATCH t=45000 cc=3 idx=26 DUT=x EXP=0
MISMATCH t=45000 cc=3 idx=27 DUT=x EXP=0
MISMATCH t=45000 cc=3 idx=28 DUT=x EXP=0
MISMATCH t=45000 cc=3 idx=29 DUT=x EXP=0
MISMATCH t=45000 cc=3 idx=30 DUT=x EXP=0
MISMATCH t=45000 cc=3 idx=31 DUT=x EXP=0
MISMATCH t=45000 cc=3 idx=32 DUT=x EXP=0
MISMATCH t=45000 cc=3 idx=33 DUT=x EXP=0
MISMATCH t=45000 cc=3 idx=34 DUT=x EXP=0
MISMATCH t=45000 cc=3 idx=35 DUT=x EXP=0
MISMATCH t=45000 cc=3 idx=36 DUT=x EXP=0
MISMATCH t=45000 cc=3 idx=37 DUT=x EXP=0
MISMATCH t=45000 cc=3 idx=38 DUT=x EXP=0
MISMATCH t=45000 cc=3 idx=39 DUT=x EXP=0
MISMATCH t=45000 cc=3 idx=40 DUT=x EXP=0
MISMATCH t=45000 cc=3 idx=41 DUT=x EXP=0
MISMATCH t=45000 cc=3 idx=42 DUT=x EXP=0
MISMATCH t=45000 cc=3 idx=43 DUT=x EXP=0
MISMATCH t=45000 cc=3 idx=44 DUT=x EXP=0
MISMATCH t=45000 cc=3 idx=45 DUT=x EXP=0
MISMATCH t=45000 cc=3 idx=46 DUT=x EXP=0
MISMATCH t=45000 cc=3 idx=47 DUT=x EXP=0
MISMATCH t=45000 cc=3 idx=48 DUT=x EXP=0
MISMATCH t=45000 cc=3 idx=49 DUT=x EXP=0
MISMATCH t=45000 cc=3 idx=50 DUT=x EXP=0
MISMATCH t=45000 cc=3 idx=51 DUT=x EXP=0
MISMATCH t=45000 cc=3 idx=52 DUT=x EXP=0
MISMATCH t=45000 cc=3 idx=53 DUT=x EXP=0
MISMATCH t=45000 cc=3 idx=54 DUT=x EXP=0
MISMATCH t=45000 cc=3 idx=55 DUT=x EXP=0
MISMATCH t=45000 cc=3 idx=56 DUT=x EXP=0
MISMATCH t=45000 cc=3 idx=57 DUT=x EXP=0
MISMATCH t=45000 cc=3 idx=58 DUT=x EXP=0
MISMATCH t=45000 cc=3 idx=59 DUT=x EXP=0
MISMATCH t=45000 cc=3 idx=60 DUT=x EXP=0
MISMATCH t=45000 cc=3 idx=61 DUT=x EXP=0
MISMATCH t=45000 cc=3 idx=62 DUT=x EXP=0
MISMATCH t=45000 cc=3 idx=63 DUT=x EXP=0
MISMATCH t=55000 cc=4 idx=0 DUT=x EXP=0
MISMATCH t=55000 cc=4 idx=1 DUT=x EXP=0
MISMATCH t=55000 cc=4 idx=2 DUT=x EXP=0
MISMATCH t=55000 cc=4 idx=3 DUT=x EXP=0
MISMATCH t=55000 cc=4 idx=4 DUT=x EXP=0
MISMATCH t=55000 cc=4 idx=5 DUT=x EXP=0
MISMATCH t=55000 cc=4 idx=6 DUT=x EXP=0
MISMATCH t=55000 cc=4 idx=7 DUT=x EXP=0
MISMATCH t=55000 cc=4 idx=8 DUT=x EXP=0
MISMATCH t=55000 cc=4 idx=9 DUT=x EXP=0
MISMATCH t=55000 cc=4 idx=10 DUT=x EXP=0
MISMATCH t=55000 cc=4 idx=11 DUT=x EXP=0
MISMATCH t=55000 cc=4 idx=12 DUT=x EXP=0
MISMATCH t=55000 cc=4 idx=13 DUT=x EXP=0
MISMATCH t=55000 cc=4 idx=14 DUT=x EXP=0
MISMATCH t=55000 cc=4 idx=15 DUT=x EXP=0
MISMATCH t=55000 cc=4 idx=16 DUT=x EXP=0
MISMATCH t=55000 cc=4 idx=17 DUT=x EXP=0
MISMATCH t=55000 cc=4 idx=18 DUT=x EXP=0
MISMATCH t=55000 cc=4 idx=19 DUT=x EXP=0
MISMATCH t=55000 cc=4 idx=20 DUT=x EXP=0
MISMATCH t=55000 cc=4 idx=21 DUT=x EXP=0
MISMATCH t=55000 cc=4 idx=22 DUT=x EXP=0
MISMATCH t=55000 cc=4 idx=23 DUT=x EXP=0
MISMATCH t=55000 cc=4 idx=24 DUT=x EXP=0
MISMATCH t=55000 cc=4 idx=25 DUT=x EXP=0
MISMATCH t=55000 cc=4 idx=26 DUT=x EXP=0
MISMATCH t=55000 cc=4 idx=27 DUT=x EXP=0
MISMATCH t=55000 cc=4 idx=28 DUT=x EXP=0
MISMATCH t=55000 cc=4 idx=29 DUT=x EXP=0
MISMATCH t=55000 cc=4 idx=30 DUT=x EXP=0
MISMATCH t=55000 cc=4 idx=31 DUT=x EXP=0
MISMATCH t=55000 cc=4 idx=32 DUT=x EXP=0
MISMATCH t=55000 cc=4 idx=33 DUT=x EXP=0
MISMATCH t=55000 cc=4 idx=34 DUT=x EXP=0
MISMATCH t=55000 cc=4 idx=35 DUT=x EXP=0
MISMATCH t=55000 cc=4 idx=36 DUT=x EXP=0
MISMATCH t=55000 cc=4 idx=37 DUT=x EXP=0
MISMATCH t=55000 cc=4 idx=38 DUT=x EXP=0
MISMATCH t=55000 cc=4 idx=39 DUT=x EXP=0
MISMATCH t=55000 cc=4 idx=40 DUT=x EXP=0
MISMATCH t=55000 cc=4 idx=41 DUT=x EXP=0
MISMATCH t=55000 cc=4 idx=42 DUT=x EXP=0
MISMATCH t=55000 cc=4 idx=43 DUT=x EXP=0
MISMATCH t=55000 cc=4 idx=44 DUT=x EXP=0
MISMATCH t=55000 cc=4 idx=45 DUT=x EXP=0
MISMATCH t=55000 cc=4 idx=46 DUT=x EXP=0
MISMATCH t=55000 cc=4 idx=47 DUT=x EXP=0
MISMATCH t=55000 cc=4 idx=48 DUT=x EXP=0
MISMATCH t=55000 cc=4 idx=49 DUT=x EXP=0
MISMATCH t=55000 cc=4 idx=50 DUT=x EXP=0
MISMATCH t=55000 cc=4 idx=51 DUT=x EXP=0
MISMATCH t=55000 cc=4 idx=52 DUT=x EXP=0
MISMATCH t=55000 cc=4 idx=53 DUT=x EXP=0
MISMATCH t=55000 cc=4 idx=54 DUT=x EXP=0
MISMATCH t=55000 cc=4 idx=55 DUT=x EXP=0
MISMATCH t=55000 cc=4 idx=56 DUT=x EXP=0
MISMATCH t=55000 cc=4 idx=57 DUT=x EXP=0
MISMATCH t=55000 cc=4 idx=58 DUT=x EXP=0
MISMATCH t=55000 cc=4 idx=59 DUT=x EXP=0
MISMATCH t=55000 cc=4 idx=60 DUT=x EXP=0
MISMATCH t=55000 cc=4 idx=61 DUT=x EXP=0
MISMATCH t=55000 cc=4 idx=62 DUT=x EXP=0
MISMATCH t=55000 cc=4 idx=63 DUT=x EXP=0
MISMATCH t=65000 cc=5 idx=0 DUT=x EXP=0
MISMATCH t=65000 cc=5 idx=1 DUT=x EXP=0
MISMATCH t=65000 cc=5 idx=2 DUT=x EXP=0
MISMATCH t=65000 cc=5 idx=3 DUT=x EXP=0
MISMATCH t=65000 cc=5 idx=4 DUT=x EXP=0
MISMATCH t=65000 cc=5 idx=5 DUT=x EXP=0
MISMATCH t=65000 cc=5 idx=6 DUT=x EXP=0
MISMATCH t=65000 cc=5 idx=7 DUT=x EXP=0
MISMATCH t=65000 cc=5 idx=8 DUT=x EXP=0
MISMATCH t=65000 cc=5 idx=9 DUT=x EXP=0
MISMATCH t=65000 cc=5 idx=10 DUT=x EXP=0
MISMATCH t=65000 cc=5 idx=11 DUT=x EXP=0
MISMATCH t=65000 cc=5 idx=12 DUT=x EXP=0
MISMATCH t=65000 cc=5 idx=13 DUT=x EXP=0
MISMATCH t=65000 cc=5 idx=14 DUT=x EXP=0
MISMATCH t=65000 cc=5 idx=15 DUT=x EXP=0
MISMATCH t=65000 cc=5 idx=16 DUT=x EXP=0
MISMATCH t=65000 cc=5 idx=17 DUT=x EXP=0
MISMATCH t=65000 cc=5 idx=18 DUT=x EXP=0
MISMATCH t=65000 cc=5 idx=19 DUT=x EXP=0
MISMATCH t=65000 cc=5 idx=20 DUT=x EXP=0
MISMATCH t=65000 cc=5 idx=21 DUT=x EXP=0
MISMATCH t=65000 cc=5 idx=22 DUT=x EXP=0
MISMATCH t=65000 cc=5 idx=23 DUT=x EXP=0
MISMATCH t=65000 cc=5 idx=24 DUT=x EXP=0
MISMATCH t=65000 cc=5 idx=25 DUT=x EXP=0
MISMATCH t=65000 cc=5 idx=26 DUT=x EXP=0
MISMATCH t=65000 cc=5 idx=27 DUT=x EXP=0
MISMATCH t=65000 cc=5 idx=28 DUT=x EXP=0
MISMATCH t=65000 cc=5 idx=29 DUT=x EXP=0
MISMATCH t=65000 cc=5 idx=30 DUT=x EXP=0
MISMATCH t=65000 cc=5 idx=31 DUT=x EXP=0
MISMATCH t=65000 cc=5 idx=32 DUT=x EXP=0
MISMATCH t=65000 cc=5 idx=33 DUT=x EXP=0
MISMATCH t=65000 cc=5 idx=34 DUT=x EXP=0
MISMATCH t=65000 cc=5 idx=35 DUT=x EXP=0
MISMATCH t=65000 cc=5 idx=36 DUT=x EXP=0
MISMATCH t=65000 cc=5 idx=37 DUT=x EXP=0
MISMATCH t=65000 cc=5 idx=38 DUT=x EXP=0
MISMATCH t=65000 cc=5 idx=39 DUT=x EXP=0
MISMATCH t=65000 cc=5 idx=40 DUT=x EXP=0
MISMATCH t=65000 cc=5 idx=41 DUT=x EXP=0
MISMATCH t=65000 cc=5 idx=42 DUT=x EXP=0
MISMATCH t=65000 cc=5 idx=43 DUT=x EXP=0
MISMATCH t=65000 cc=5 idx=44 DUT=x EXP=0
MISMATCH t=65000 cc=5 idx=45 DUT=x EXP=0
MISMATCH t=65000 cc=5 idx=46 DUT=x EXP=0
MISMATCH t=65000 cc=5 idx=47 DUT=x EXP=0
MISMATCH t=65000 cc=5 idx=48 DUT=x EXP=0
MISMATCH t=65000 cc=5 idx=49 DUT=x EXP=0
MISMATCH t=65000 cc=5 idx=50 DUT=x EXP=0
MISMATCH t=65000 cc=5 idx=51 DUT=x EXP=0
MISMATCH t=65000 cc=5 idx=52 DUT=x EXP=0
MISMATCH t=65000 cc=5 idx=53 DUT=x EXP=0
MISMATCH t=65000 cc=5 idx=54 DUT=x EXP=0
MISMATCH t=65000 cc=5 idx=55 DUT=x EXP=0
MISMATCH t=65000 cc=5 idx=56 DUT=x EXP=0
MISMATCH t=65000 cc=5 idx=57 DUT=x EXP=0
MISMATCH t=65000 cc=5 idx=58 DUT=x EXP=0
MISMATCH t=65000 cc=5 idx=59 DUT=x EXP=0
MISMATCH t=65000 cc=5 idx=60 DUT=x EXP=0
MISMATCH t=65000 cc=5 idx=61 DUT=x EXP=0
MISMATCH t=65000 cc=5 idx=62 DUT=x EXP=0
MISMATCH t=65000 cc=5 idx=63 DUT=x EXP=0
MISMATCH t=75000 cc=6 idx=0 DUT=x EXP=0
MISMATCH t=75000 cc=6 idx=1 DUT=x EXP=0
MISMATCH t=75000 cc=6 idx=2 DUT=x EXP=0
MISMATCH t=75000 cc=6 idx=3 DUT=x EXP=0
MISMATCH t=75000 cc=6 idx=4 DUT=x EXP=0
MISMATCH t=75000 cc=6 idx=5 DUT=x EXP=0
MISMATCH t=75000 cc=6 idx=6 DUT=x EXP=0
MISMATCH t=75000 cc=6 idx=7 DUT=x EXP=0
MISMATCH t=75000 cc=6 idx=8 DUT=x EXP=0
MISMATCH t=75000 cc=6 idx=9 DUT=x EXP=0
MISMATCH t=75000 cc=6 idx=10 DUT=x EXP=0
MISMATCH t=75000 cc=6 idx=11 DUT=x EXP=0
MISMATCH t=75000 cc=6 idx=12 DUT=x EXP=0
MISMATCH t=75000 cc=6 idx=13 DUT=x EXP=0
MISMATCH t=75000 cc=6 idx=14 DUT=x EXP=0
MISMATCH t=75000 cc=6 idx=15 DUT=x EXP=0
MISMATCH t=75000 cc=6 idx=16 DUT=x EXP=0
MISMATCH t=75000 cc=6 idx=17 DUT=x EXP=0
MISMATCH t=75000 cc=6 idx=18 DUT=x EXP=0
MISMATCH t=75000 cc=6 idx=19 DUT=x EXP=0
MISMATCH t=75000 cc=6 idx=20 DUT=x EXP=0
MISMATCH t=75000 cc=6 idx=21 DUT=x EXP=0
MISMATCH t=75000 cc=6 idx=22 DUT=x EXP=0
MISMATCH t=75000 cc=6 idx=23 DUT=x EXP=0
MISMATCH t=75000 cc=6 idx=24 DUT=x EXP=0
MISMATCH t=75000 cc=6 idx=25 DUT=x EXP=0
MISMATCH t=75000 cc=6 idx=26 DUT=x EXP=0
MISMATCH t=75000 cc=6 idx=27 DUT=x EXP=0
MISMATCH t=75000 cc=6 idx=28 DUT=x EXP=0
MISMATCH t=75000 cc=6 idx=29 DUT=x EXP=0
MISMATCH t=75000 cc=6 idx=30 DUT=x EXP=0
MISMATCH t=75000 cc=6 idx=31 DUT=x EXP=0
MISMATCH t=75000 cc=6 idx=32 DUT=x EXP=0
MISMATCH t=75000 cc=6 idx=33 DUT=x EXP=0
MISMATCH t=75000 cc=6 idx=34 DUT=x EXP=0
MISMATCH t=75000 cc=6 idx=35 DUT=x EXP=0
MISMATCH t=75000 cc=6 idx=36 DUT=x EXP=0
MISMATCH t=75000 cc=6 idx=37 DUT=x EXP=0
MISMATCH t=75000 cc=6 idx=38 DUT=x EXP=0
MISMATCH t=75000 cc=6 idx=39 DUT=x EXP=0
MISMATCH t=75000 cc=6 idx=40 DUT=x EXP=0
MISMATCH t=75000 cc=6 idx=41 DUT=x EXP=0
MISMATCH t=75000 cc=6 idx=42 DUT=x EXP=0
MISMATCH t=75000 cc=6 idx=43 DUT=x EXP=0
MISMATCH t=75000 cc=6 idx=44 DUT=x EXP=0
MISMATCH t=75000 cc=6 idx=45 DUT=x EXP=0
MISMATCH t=75000 cc=6 idx=46 DUT=x EXP=0
MISMATCH t=75000 cc=6 idx=47 DUT=x EXP=0
MISMATCH t=75000 cc=6 idx=48 DUT=x EXP=0
MISMATCH t=75000 cc=6 idx=49 DUT=x EXP=0
MISMATCH t=75000 cc=6 idx=50 DUT=x EXP=0
MISMATCH t=75000 cc=6 idx=51 DUT=x EXP=0
MISMATCH t=75000 cc=6 idx=52 DUT=x EXP=0
MISMATCH t=75000 cc=6 idx=53 DUT=x EXP=0
MISMATCH t=75000 cc=6 idx=54 DUT=x EXP=0
MISMATCH t=75000 cc=6 idx=55 DUT=x EXP=0
MISMATCH t=75000 cc=6 idx=56 DUT=x EXP=0
MISMATCH t=75000 cc=6 idx=57 DUT=x EXP=0
MISMATCH t=75000 cc=6 idx=58 DUT=x EXP=0
MISMATCH t=75000 cc=6 idx=59 DUT=x EXP=0
MISMATCH t=75000 cc=6 idx=60 DUT=x EXP=0
MISMATCH t=75000 cc=6 idx=61 DUT=x EXP=0
MISMATCH t=75000 cc=6 idx=62 DUT=x EXP=0
MISMATCH t=75000 cc=6 idx=63 DUT=x EXP=0
MISMATCH t=85000 cc=7 idx=0 DUT=x EXP=0
MISMATCH t=85000 cc=7 idx=1 DUT=x EXP=0
MISMATCH t=85000 cc=7 idx=2 DUT=x EXP=0
MISMATCH t=85000 cc=7 idx=3 DUT=x EXP=0
MISMATCH t=85000 cc=7 idx=4 DUT=x EXP=0
MISMATCH t=85000 cc=7 idx=5 DUT=x EXP=0
MISMATCH t=85000 cc=7 idx=6 DUT=x EXP=0
MISMATCH t=85000 cc=7 idx=7 DUT=x EXP=0
MISMATCH t=85000 cc=7 idx=8 DUT=x EXP=0
MISMATCH t=85000 cc=7 idx=9 DUT=x EXP=0
MISMATCH t=85000 cc=7 idx=10 DUT=x EXP=0
MISMATCH t=85000 cc=7 idx=11 DUT=x EXP=0
MISMATCH t=85000 cc=7 idx=12 DUT=x EXP=0
MISMATCH t=85000 cc=7 idx=13 DUT=x EXP=0
MISMATCH t=85000 cc=7 idx=14 DUT=x EXP=0
MISMATCH t=85000 cc=7 idx=15 DUT=x EXP=0
MISMATCH t=85000 cc=7 idx=16 DUT=x EXP=0
MISMATCH t=85000 cc=7 idx=17 DUT=x EXP=0
MISMATCH t=85000 cc=7 idx=18 DUT=x EXP=0
MISMATCH t=85000 cc=7 idx=19 DUT=x EXP=0
MISMATCH t=85000 cc=7 idx=20 DUT=x EXP=0
MISMATCH t=85000 cc=7 idx=21 DUT=x EXP=0
MISMATCH t=85000 cc=7 idx=22 DUT=x EXP=0
MISMATCH t=85000 cc=7 idx=23 DUT=x EXP=0
MISMATCH t=85000 cc=7 idx=24 DUT=x EXP=0
MISMATCH t=85000 cc=7 idx=25 DUT=x EXP=0
MISMATCH t=85000 cc=7 idx=26 DUT=x EXP=0
MISMATCH t=85000 cc=7 idx=27 DUT=x EXP=0
MISMATCH t=85000 cc=7 idx=28 DUT=x EXP=0
MISMATCH t=85000 cc=7 idx=29 DUT=x EXP=0
MISMATCH t=85000 cc=7 idx=30 DUT=x EXP=0
MISMATCH t=85000 cc=7 idx=31 DUT=x EXP=0
MISMATCH t=85000 cc=7 idx=32 DUT=x EXP=0
MISMATCH t=85000 cc=7 idx=33 DUT=x EXP=0
MISMATCH t=85000 cc=7 idx=34 DUT=x EXP=0
MISMATCH t=85000 cc=7 idx=35 DUT=x EXP=0
MISMATCH t=85000 cc=7 idx=36 DUT=x EXP=0
MISMATCH t=85000 cc=7 idx=37 DUT=x EXP=0
MISMATCH t=85000 cc=7 idx=38 DUT=x EXP=0
MISMATCH t=85000 cc=7 idx=39 DUT=x EXP=0
MISMATCH t=85000 cc=7 idx=40 DUT=x EXP=0
MISMATCH t=85000 cc=7 idx=41 DUT=x EXP=0
MISMATCH t=85000 cc=7 idx=42 DUT=x EXP=0
MISMATCH t=85000 cc=7 idx=43 DUT=x EXP=0
MISMATCH t=85000 cc=7 idx=44 DUT=x EXP=0
MISMATCH t=85000 cc=7 idx=45 DUT=x EXP=0
MISMATCH t=85000 cc=7 idx=46 DUT=x EXP=0
MISMATCH t=85000 cc=7 idx=47 DUT=x EXP=0
MISMATCH t=85000 cc=7 idx=48 DUT=x EXP=0
MISMATCH t=85000 cc=7 idx=49 DUT=x EXP=0
MISMATCH t=85000 cc=7 idx=50 DUT=x EXP=0
MISMATCH t=85000 cc=7 idx=51 DUT=x EXP=0
MISMATCH t=85000 cc=7 idx=52 DUT=x EXP=0
MISMATCH t=85000 cc=7 idx=53 DUT=x EXP=0
MISMATCH t=85000 cc=7 idx=54 DUT=x EXP=0
MISMATCH t=85000 cc=7 idx=55 DUT=x EXP=0
MISMATCH t=85000 cc=7 idx=56 DUT=x EXP=0
MISMATCH t=85000 cc=7 idx=57 DUT=x EXP=0
MISMATCH t=85000 cc=7 idx=58 DUT=x EXP=0
MISMATCH t=85000 cc=7 idx=59 DUT=x EXP=0
MISMATCH t=85000 cc=7 idx=60 DUT=x EXP=0
MISMATCH t=85000 cc=7 idx=61 DUT=x EXP=0
MISMATCH t=85000 cc=7 idx=62 DUT=x EXP=0
MISMATCH t=85000 cc=7 idx=63 DUT=x EXP=0
MISMATCH t=95000 cc=8 idx=0 DUT=x EXP=0
MISMATCH t=95000 cc=8 idx=1 DUT=x EXP=0
